{"data":[{"id":"a89157f3-7333-3879-892d-ce217dfe406f","slug":"autem-dolores-autem-facilis-accusantium-vel-aliquid-iste-non","name":"Abernathy PLC Inc","logo":"https:\/\/lorempixel.com\/171\/103\/?79087","tickers":[{"symbol":"DUC","exchange":"SED"}],"createdAt":"2018-11-27 00:58:57","updatedAt":"2018-11-27 00:58:57"},{"id":"32a10a97-2921-3260-92f3-bc8aa0a605d5","slug":"exercitationem-cumque-corporis-quibusdam-fugiat-ut-et","name":"Abshire And Sons Group","logo":"https:\/\/lorempixel.com\/171\/103\/?32897","tickers":[{"symbol":"VIT","exchange":"NOBIS"}],"createdAt":"2018-11-27 00:58:55","updatedAt":"2018-11-27 00:58:55"},{"id":"7f8551de-f323-33fa-8404-de398913a62f","slug":"magni-qui-sit-delectus-et-totam-recusandae-necessitatibus-hic","name":"Abshire PLC Inc","logo":"https:\/\/lorempixel.com\/171\/103\/?20064","tickers":[{"symbol":"QUI","exchange":"AUT"}],"createdAt":"2018-11-27 00:58:56","updatedAt":"2018-11-27 00:58:56"},{"id":"286dab65-d86b-303b-a222-e416a151bbcb","slug":"incidunt-tempore-laudantium-numquam","name":"Abshire, Mosciski And Corwin PLC","logo":"https:\/\/lorempixel.com\/171\/103\/?23351","tickers":[{"symbol":"SAE","exchange":"SED"}],"createdAt":"2018-11-27 00:58:56","updatedAt":"2018-11-27 00:58:56"},{"id":"13438ced-810e-3abd-a4ae-5318b72fb4dd","slug":"dolorem-qui-consequatur-qui-iste-minima-sed","name":"Auer PLC Group","logo":"https:\/\/lorempixel.com\/171\/103\/?41359","tickers":[{"symbol":"LAB","exchange":"QUOD"},{"symbol":"QUI","exchange":"AUT"}],"createdAt":"2018-11-27 00:58:57","updatedAt":"2018-11-27 00:58:57"},{"id":"bcf29a73-b0ad-344f-ad7b-a77319d3be05","slug":"aliquam-quia-rerum-minima-odio-ab-sed","name":"Aufderhar-Brekke Group","logo":"https:\/\/lorempixel.com\/171\/103\/?59802","tickers":[{"symbol":"ALI","exchange":"SED"}],"createdAt":"2018-11-27 00:58:56","updatedAt":"2018-11-27 00:58:56"},{"id":"63c9b49a-48ee-3338-a9b0-193e5eceaab2","slug":"libero-cupiditate-eligendi-cupiditate-maxime","name":"Bahringer PLC LLC","logo":"https:\/\/lorempixel.com\/171\/103\/?77875","tickers":[{"symbol":"NOS","exchange":"CONSEQUATUR"}],"createdAt":"2018-11-27 00:58:57","updatedAt":"2018-11-27 00:58:57"},{"id":"9a888c59-a6f4-322f-a3f5-b2bb94c1c718","slug":"omnis-possimus-quia-quo-possimus-ut-quae","name":"Bartell, Wiza And Mann PLC","logo":"https:\/\/lorempixel.com\/171\/103\/?16941","tickers":[{"symbol":"ENI","exchange":"DOLORUM"},{"symbol":"ASP","exchange":"QUOD"}],"createdAt":"2018-11-27 00:58:57","updatedAt":"2018-11-27 00:58:57"},{"id":"0332f007-fe5a-336f-af5d-f92b1e22e9ff","slug":"sint-occaecati-repellat-repellendus-voluptatibus-blanditiis-et-non-labore","name":"Bashirian, Skiles And Larkin Group","logo":"https:\/\/lorempixel.com\/171\/103\/?90804","tickers":[{"symbol":"EST","exchange":"NOBIS"}],"createdAt":"2018-11-27 00:58:57","updatedAt":"2018-11-27 00:58:57"},{"id":"4f638e5d-3533-3823-b159-29a32345461a","slug":"quaerat-ut-excepturi-minima-ut","name":"Bechtelar LLC LLC","logo":"https:\/\/lorempixel.com\/171\/103\/?77980","tickers":[{"symbol":"UT","exchange":"VOLUPTATES"}],"createdAt":"2018-11-27 00:58:57","updatedAt":"2018-11-27 00:58:57"},{"id":"b2358af7-98ea-3cfd-a9e8-955c190d89e6","slug":"vel-sit-vero-sit-natus-accusantium-dignissimos-magni","name":"Bednar Group Ltd","logo":"https:\/\/lorempixel.com\/171\/103\/?19108","tickers":[{"symbol":"AT","exchange":"CONSEQUATUR"},{"symbol":"AB","exchange":"VOLUPTATEM"}],"createdAt":"2018-11-27 00:58:56","updatedAt":"2018-11-27 00:58:56"},{"id":"59b56ca8-588c-3a54-91fa-d9bd172e07d8","slug":"nihil-quia-fugit-et-esse-ab","name":"Berge, Yost And Moore And Sons","logo":"https:\/\/lorempixel.com\/171\/103\/?54033","tickers":[{"symbol":"DOL","exchange":"AUT"}],"createdAt":"2018-11-27 00:58:57","updatedAt":"2018-11-27 00:58:57"},{"id":"dbfeac6d-2a32-3a49-bb05-64728974a5a3","slug":"asperiores-voluptatem-dolor-corrupti-harum","name":"Bernhard, Bins And Turner LLC","logo":"https:\/\/lorempixel.com\/171\/103\/?45781","tickers":[{"symbol":"CUM","exchange":"CONSEQUATUR"}],"createdAt":"2018-11-27 00:58:55","updatedAt":"2018-11-27 00:58:55"},{"id":"41878514-2881-3c2e-b95a-ed9f7c57c00b","slug":"blanditiis-quae-porro-nesciunt-vel-sint-necessitatibus-modi-voluptatum","name":"Bernier Ltd And Sons","logo":"https:\/\/lorempixel.com\/171\/103\/?48540","tickers":[{"symbol":"VOL","exchange":"SED"}],"createdAt":"2018-11-27 00:58:56","updatedAt":"2018-11-27 00:58:56"},{"id":"159d905a-e4f0-3dca-b906-fc09f82ce9d7","slug":"architecto-expedita-omnis-enim-ullam-qui-et","name":"Bins, Wiegand And Weimann PLC","logo":"https:\/\/lorempixel.com\/171\/103\/?32048","tickers":[{"symbol":"IN","exchange":"NOBIS"}],"createdAt":"2018-11-27 00:58:55","updatedAt":"2018-11-27 00:58:55"},{"id":"f78dffea-7332-3a52-8ceb-8b03711a8983","slug":"eaque-voluptatem-blanditiis-et-vel-expedita-saepe-amet","name":"Blick-Farrell And Sons","logo":null,"tickers":[{"symbol":"QUI","exchange":"NOBIS"}],"createdAt":"2018-11-27 00:58:56","updatedAt":"2018-11-27 00:58:56"},{"id":"8cf71920-e4ea-300a-a9d2-1898906804be","slug":"vel-enim-quis-officiis","name":"Bogisich-West PLC","logo":"https:\/\/lorempixel.com\/171\/103\/?50142","tickers":[{"symbol":"NUL","exchange":"DOLORUM"}],"createdAt":"2018-11-27 00:58:57","updatedAt":"2018-11-27 00:58:57"},{"id":"e13789ca-8976-35af-a3e8-04eb922ba74e","slug":"expedita-architecto-omnis-a-est-ut","name":"Borer And Sons And Sons","logo":"https:\/\/lorempixel.com\/171\/103\/?48879","tickers":[{"symbol":"PRA","exchange":"CONSEQUATUR"}],"createdAt":"2018-11-27 00:58:57","updatedAt":"2018-11-27 00:58:57"},{"id":"78dd5212-ffdc-321c-8f70-c3134c340638","slug":"libero-nostrum-maiores-doloremque-consequatur-ut","name":"Borer-Bins PLC","logo":"https:\/\/lorempixel.com\/171\/103\/?41941","tickers":[{"symbol":"CON","exchange":"SED"}],"createdAt":"2018-11-27 00:58:55","updatedAt":"2018-11-27 00:58:55"},{"id":"c6d2cfb4-97db-3e67-8b8e-6bba56e11fab","slug":"nulla-in-assumenda-magni-eligendi","name":"Borer, Bogan And Christiansen And Sons","logo":"https:\/\/lorempixel.com\/171\/103\/?84797","tickers":[{"symbol":"EAQ","exchange":"DOLORUM"},{"symbol":"NEM","exchange":"VOLUPTATEM"}],"createdAt":"2018-11-27 00:58:57","updatedAt":"2018-11-27 00:58:57"},{"id":"10c649fe-99a6-3c46-ac25-3e083619dad7","slug":"nulla-culpa-corrupti-dolor-esse-molestias","name":"Borer, O'Keefe And Ritchie And Sons","logo":"https:\/\/lorempixel.com\/171\/103\/?85481","tickers":[{"symbol":"EX","exchange":"AUT"}],"createdAt":"2018-11-27 00:58:58","updatedAt":"2018-11-27 00:58:58"},{"id":"efcc4a0f-3fcf-39a1-a039-961a1c71d270","slug":"voluptate-nihil-eaque-consequatur-voluptatem-omnis-labore","name":"Botsford-Casper PLC","logo":"https:\/\/lorempixel.com\/171\/103\/?69621","tickers":[{"symbol":"PER","exchange":"DOLORUM"},{"symbol":"RER","exchange":"AUT"}],"createdAt":"2018-11-27 00:58:55","updatedAt":"2018-11-27 00:58:55"},{"id":"979bdbab-2cce-37a9-855f-71a8f3a2b0d4","slug":"consequatur-qui-et-qui-vitae-totam-molestiae","name":"Botsford-Weissnat Group","logo":"https:\/\/lorempixel.com\/171\/103\/?51817","tickers":[{"symbol":"ODI","exchange":"QUOD"}],"createdAt":"2018-11-27 00:58:58","updatedAt":"2018-11-27 00:58:58"},{"id":"73ee93fe-f5fc-3fe4-82f5-d39f1faa86d4","slug":"facilis-possimus-quis-sapiente-hic-culpa-iste-autem-dicta","name":"Boyer Inc LLC","logo":null,"tickers":[{"symbol":"EX","exchange":"VOLUPTATEM"}],"createdAt":"2018-11-27 00:58:56","updatedAt":"2018-11-27 00:58:56"},{"id":"f2808a93-ddc4-3c6a-a894-48d343ffc310","slug":"fuga-harum-et-distinctio-quibusdam","name":"Boyer-Rodriguez And Sons","logo":"https:\/\/lorempixel.com\/171\/103\/?12088","tickers":[{"symbol":"DOL","exchange":"DOLORUM"}],"createdAt":"2018-11-27 00:58:56","updatedAt":"2018-11-27 00:58:56"},{"id":"5b61d1f8-90df-3fdc-b5a6-792c7fa7ac09","slug":"aut-aut-inventore-necessitatibus-sit","name":"Bradtke, Rau And O'Connell PLC","logo":"https:\/\/lorempixel.com\/171\/103\/?60479","tickers":[{"symbol":"NAM","exchange":"CONSEQUATUR"}],"createdAt":"2018-11-27 00:58:58","updatedAt":"2018-11-27 00:58:58"},{"id":"174e982f-bcd0-338d-8af3-1fd59864cc61","slug":"eius-laborum-consequatur-aut-vero-nobis","name":"Brakus Group Ltd","logo":"https:\/\/lorempixel.com\/171\/103\/?45502","tickers":[{"symbol":"IMP","exchange":"SED"}],"createdAt":"2018-11-27 00:58:56","updatedAt":"2018-11-27 00:58:56"},{"id":"150e89a8-314b-3c4f-9be8-2896b12ab0d4","slug":"eum-et-dolorem-soluta-facilis-non-suscipit-quos","name":"Brakus, Runte And Strosin Group","logo":"https:\/\/lorempixel.com\/171\/103\/?64050","tickers":[{"symbol":"QUI","exchange":"AUT"}],"createdAt":"2018-11-27 00:58:55","updatedAt":"2018-11-27 00:58:55"},{"id":"3ed1f2fc-b02a-319a-9b87-5396d7a9cbe8","slug":"debitis-recusandae-suscipit-enim-aut","name":"Braun-Koch Inc","logo":"https:\/\/lorempixel.com\/171\/103\/?46530","tickers":[{"symbol":"DIS","exchange":"QUOD"}],"createdAt":"2018-11-27 00:58:56","updatedAt":"2018-11-27 00:58:56"},{"id":"d074b5e4-9da8-3955-b45d-928e7fca2eab","slug":"consequatur-dolor-non-aut-error-quasi-reiciendis-voluptatem","name":"Braun-Lebsack Inc","logo":null,"tickers":[{"symbol":"ESS","exchange":"NOBIS"}],"createdAt":"2018-11-27 00:58:56","updatedAt":"2018-11-27 00:58:56"},{"id":"7a68ea65-aea2-3595-ad91-84b4d87e2acc","slug":"consequuntur-ut-aspernatur-sunt-ullam-voluptatem-ut-nisi","name":"Breitenberg, Kohler And Rowe Group","logo":"https:\/\/lorempixel.com\/171\/103\/?33078","tickers":[{"symbol":"QUA","exchange":"QUOD"}],"createdAt":"2018-11-27 00:58:56","updatedAt":"2018-11-27 00:58:56"},{"id":"4a1c6780-5a29-3f20-8fe5-df1ba48fc942","slug":"nostrum-aut-similique-culpa-totam-ut","name":"Brekke-VonRueden LLC","logo":"https:\/\/lorempixel.com\/171\/103\/?41234","tickers":[{"symbol":"ENI","exchange":"NOBIS"}],"createdAt":"2018-11-27 00:58:55","updatedAt":"2018-11-27 00:58:55"},{"id":"7a5d9d90-1ed3-30ae-b7d8-26ee21c81beb","slug":"id-optio-eum-qui-quia-quae-doloribus-itaque-sit","name":"Bruen-Kub LLC","logo":"https:\/\/lorempixel.com\/171\/103\/?86903","tickers":[{"symbol":"EOS","exchange":"NOBIS"},{"symbol":"CUL","exchange":"QUOD"}],"createdAt":"2018-11-27 00:58:56","updatedAt":"2018-11-27 00:58:56"},{"id":"ec54b0a9-c2c8-3e95-80c7-e4dbd86c6880","slug":"quia-possimus-id-tenetur-amet-molestiae-omnis-ipsa","name":"Buckridge PLC Group","logo":"https:\/\/lorempixel.com\/171\/103\/?80783","tickers":[{"symbol":"AUT","exchange":"AUT"}],"createdAt":"2018-11-27 00:58:55","updatedAt":"2018-11-27 00:58:55"},{"id":"91e23f13-8dc8-3969-ba03-5621601eb35a","slug":"mollitia-consequatur-quia-eos-explicabo","name":"Carroll, Kunze And Larkin Inc","logo":"https:\/\/lorempixel.com\/171\/103\/?67596","tickers":[{"symbol":"DOL","exchange":"VOLUPTATES"}],"createdAt":"2018-11-27 00:58:55","updatedAt":"2018-11-27 00:58:55"},{"id":"2689c3f0-d5ec-326b-8073-c72ab281fbd8","slug":"voluptates-accusantium-inventore-ab-quis","name":"Carter-Hills Group","logo":"https:\/\/lorempixel.com\/171\/103\/?53093","tickers":[{"symbol":"AB","exchange":"SED"}],"createdAt":"2018-11-27 00:58:55","updatedAt":"2018-11-27 00:58:55"},{"id":"40dbca3c-8c63-3b9e-a21f-9ae577e68c49","slug":"placeat-in-veritatis-nesciunt-iste-officia-ipsum","name":"Cassin, Legros And Jerde Ltd","logo":null,"tickers":[{"symbol":"ODI","exchange":"DOLORUM"}],"createdAt":"2018-11-27 00:58:55","updatedAt":"2018-11-27 00:58:55"},{"id":"262e00c6-e2a2-327a-9a04-5ebe17fa18d0","slug":"reprehenderit-deserunt-dolor-quasi-eligendi","name":"Cassin, McDermott And Altenwerth Inc","logo":"https:\/\/lorempixel.com\/171\/103\/?34623","tickers":[{"symbol":"QUA","exchange":"NOBIS"},{"symbol":"NIH","exchange":"VOLUPTATEM"}],"createdAt":"2018-11-27 00:58:55","updatedAt":"2018-11-27 00:58:55"},{"id":"ed19d47f-2acc-3ea4-9ab6-46bc7dc1b5cc","slug":"placeat-fuga-sed-et-praesentium-quia-nulla","name":"Christiansen Group PLC","logo":"https:\/\/lorempixel.com\/171\/103\/?93958","tickers":[{"symbol":"NUM","exchange":"CONSEQUATUR"},{"symbol":"CUP","exchange":"CONSEQUATUR"}],"createdAt":"2018-11-27 00:58:56","updatedAt":"2018-11-27 00:58:56"},{"id":"dbf40628-23c9-3101-8cd3-41a93b4bc65c","slug":"vel-iste-nihil-iure-necessitatibus-sed-provident-eos","name":"Collins Group Ltd","logo":null,"tickers":[{"symbol":"SUN","exchange":"VOLUPTATES"}],"createdAt":"2018-11-27 00:58:57","updatedAt":"2018-11-27 00:58:57"},{"id":"55202451-58e6-36bd-a2dc-472e2910c483","slug":"dolor-quis-aut-velit-sunt-aut-quam-totam-dicta","name":"Collins-Ondricka Inc","logo":"https:\/\/lorempixel.com\/171\/103\/?34400","tickers":[{"symbol":"POR","exchange":"AUT"},{"symbol":"POS","exchange":"QUOD"}],"createdAt":"2018-11-27 00:58:56","updatedAt":"2018-11-27 00:58:56"},{"id":"e25d085b-03f7-366a-a9c9-580dcaedc2bd","slug":"consequatur-quo-quia-praesentium-iste-recusandae-dolor","name":"Connelly Group PLC","logo":"https:\/\/lorempixel.com\/171\/103\/?64149","tickers":[{"symbol":"NON","exchange":"QUOD"}],"createdAt":"2018-11-27 00:58:56","updatedAt":"2018-11-27 00:58:56"},{"id":"9fb6a182-f854-3375-bd52-6abe58058b5b","slug":"sequi-illo-molestiae-culpa-architecto","name":"Connelly, VonRueden And Turner Group","logo":"https:\/\/lorempixel.com\/171\/103\/?52214","tickers":[{"symbol":"ET","exchange":"NOBIS"}],"createdAt":"2018-11-27 00:58:55","updatedAt":"2018-11-27 00:58:55"},{"id":"6ec46f3c-c2b3-307c-8868-e7989839abd9","slug":"officiis-natus-facilis-quisquam-ab","name":"Corkery Group LLC","logo":"https:\/\/lorempixel.com\/171\/103\/?45359","tickers":[{"symbol":"DES","exchange":"CONSEQUATUR"}],"createdAt":"2018-11-27 00:58:55","updatedAt":"2018-11-27 00:58:55"},{"id":"38b78d75-7517-39f9-a15d-4a9a0a46af6f","slug":"nam-voluptatem-animi-veritatis-voluptatem","name":"Cormier Inc And Sons","logo":"https:\/\/lorempixel.com\/171\/103\/?97917","tickers":[{"symbol":"QUI","exchange":"VOLUPTATEM"},{"symbol":"OMN","exchange":"AUT"}],"createdAt":"2018-11-27 00:58:55","updatedAt":"2018-11-27 00:58:55"},{"id":"363d19d5-5c85-320d-8e26-50b23f024794","slug":"aut-atque-inventore-non-in-et-voluptatem","name":"Cremin-Larkin And Sons","logo":"https:\/\/lorempixel.com\/171\/103\/?81498","tickers":[{"symbol":"ET","exchange":"SED"}],"createdAt":"2018-11-27 00:58:57","updatedAt":"2018-11-27 00:58:57"},{"id":"e62f4811-8f53-3d28-b982-6870565ee04d","slug":"ducimus-voluptatem-repellendus-itaque-cum-autem-recusandae-ex-tenetur","name":"Cronin-Hyatt Ltd","logo":"https:\/\/lorempixel.com\/171\/103\/?23090","tickers":[{"symbol":"AUT","exchange":"VOLUPTATES"}],"createdAt":"2018-11-27 00:58:57","updatedAt":"2018-11-27 00:58:57"},{"id":"807eb8da-ed20-3d8f-820e-e94ea7df1865","slug":"dolorem-numquam-fugiat-laborum","name":"Crooks, Carter And Nader LLC","logo":"https:\/\/lorempixel.com\/171\/103\/?99717","tickers":[{"symbol":"PRA","exchange":"QUOD"}],"createdAt":"2018-11-27 00:58:55","updatedAt":"2018-11-27 00:58:55"},{"id":"21f74001-60b0-351e-8a08-8af22b236a89","slug":"quaerat-nisi-asperiores-et-eos-deleniti","name":"Cruickshank, Sipes And Simonis Ltd","logo":"https:\/\/lorempixel.com\/171\/103\/?14337","tickers":[{"symbol":"TEM","exchange":"VOLUPTATEM"},{"symbol":"ATQ","exchange":"DOLORUM"}],"createdAt":"2018-11-27 00:58:58","updatedAt":"2018-11-27 00:58:58"},{"id":"265c4263-ad99-3fe4-b26b-4f3307d35129","slug":"et-commodi-voluptatem-molestias-quia-non-qui-in","name":"Cruickshank, Sporer And Anderson Inc","logo":"https:\/\/lorempixel.com\/171\/103\/?83441","tickers":[{"symbol":"ET","exchange":"NOBIS"}],"createdAt":"2018-11-27 00:58:55","updatedAt":"2018-11-27 00:58:55"}],"meta":{"pagination":{"total":250,"count":50,"per_page":50,"current_page":1,"total_pages":5,"links":{"next":"https:\/\/api.renmark.ir\/companies?page=2"}}}}
